free-form-response-analysis-180308_postARCHIVED.R
…
## Joining, by = "Respondent ID"

major_strengths_bigrams_positive

## # A tibble: 493 x 3
##    word1         word2            n
##    <chr>         <chr>        <int>
##  1 knowledgeable instructors      6
##  2 data          analysis         5
##  3 cover         page             4
##  4 time          management       4
##  5 enthusiastic  instructors      3
##  6 friendly      atmosphere       3
##  7 nice          atmosphere       3
##  8 prior         knowledge        3
##  9 step          instructions     3
## 10 answer        questions        2
## # ... with 483 more rows
…
## Joining, by = "Respondent ID"

major_strengths_bigrams_negative

## # A tibble: 27 x 3
##    word1    word2          n
##    <chr>    <chr>      <int>
##  1 added    advanced       1
##  2 advance  skills         1
##  3 advanced actives        1
##  4 beginner level          1
##  5 boring   people         1
##  6 cheat    sheets         1
##  7 complex  scripts        1
##  8 covered  background     1
##  9 entire   pipeline       1
## 10 graphic  plot           1
## # ... with 17 more rows
…
# top bigrams
improved %>% 
  unnest_tokens(bigram, 
                text, 
                token = "ngrams", 
                n = 2) %>% 
  separate(bigram, c("word1", "word2"), sep = " ") %>% 
  filter(!word1 %in% stop_words$word) %>%
  filter(!word2 %in% stop_words$word) %>% 
  count(word1, word2, sort = TRUE)

## # A tibble: 691 x 3
##    word1  word2          n
##    <chr>  <chr>      <int>
##  1 2      days           7
##  2 data   analysis       6
##  3 pre    workshop       4
##  4 3      day            3
##  5 3      days           3
##  6 data   management     3
##  7 day    workshop       3
##  8 half   day            3
##  9 social science        3
## 10 time   spent          3
## # ... with 681 more rows
…
# top bigrams
accessibility %>% 
  unnest_tokens(bigram, 
                text, 
                token = "ngrams", 
                n = 2) %>% 
  separate(bigram, c("word1", "word2"), sep = " ") %>% 
  filter(!word1 %in% stop_words$word) %>%
  filter(!word2 %in% stop_words$word) %>% 
  count(word1, word2, sort = TRUE)

## # A tibble: 83 x 3
##    word1    word2        n
##    <chr>    <chr>    <int>
##  1 2        days         2
##  2 1        day          1
##  3 1        hour         1
##  4 10       minutes      1
##  5 3        day          1
##  6 3        days         1
##  7 5        10           1
##  8 9        30           1
##  9 analysis examples     1
## 10 beginner level        1
## # ... with 73 more rows
…
# top bigrams
experience %>% 
  unnest_tokens(bigram, 
                text, 
                token = "ngrams", 
                n = 2) %>% 
  separate(bigram, c("word1", "word2"), sep = " ") %>% 
  filter(!word1 %in% stop_words$word) %>%
  filter(!word2 %in% stop_words$word) %>% 
  count(word1, word2, sort = TRUE)

## # A tibble: 397 x 3
##    word1       word2          n
##    <chr>       <chr>      <int>
##  1 answer      questions      7
##  2 answering   questions      3
##  3 command     line           3
##  4 instructors helpers        3
##  5 learning    experience     3
##  6 red         post           3
##  7 answered    quickly        2
##  8 computer    geniuses       2
##  9 data        analysis       2
## 10 data        set            2
## # ... with 387 more rows
…
